<svg xmlns="http://www.w3.org/2000/svg" width="22" height="28" viewBox="0 0 22 28">
    <path fill="#415765" fill-rule="evenodd" d="M10.387 5.862L7.21.762C6.403-.532 5.003.215 5.003.215L3.044 1.263l4.793 7.692 1.958-1.048c1.4-.749.592-2.045.592-2.045m8.139 21.733l-4.79-7.693c-1.184.632-2.27-.536-3.266-1.791a28.63 28.63 0 0 1-3.282-5.271c-.673-1.428-1.18-2.906-.041-3.517l-4.793-7.69c-1.688.904-5.048 5.715 1.631 16.435 6.699 10.754 12.855 10.43 14.54 9.527m3.243-3.464l-3.176-5.098c-.808-1.298-2.208-.549-2.208-.549l-1.959 1.049 4.793 7.692 1.958-1.048c1.4-.749.592-2.046.592-2.046"/>
</svg>
