<svg xmlns="http://www.w3.org/2000/svg" width="50" height="50" viewBox="0 0 50 50">
  <g id="O2" transform="translate(4939 -13500)">
    <rect id="Rectangle_3662" data-name="Rectangle 3662" width="50" height="50" transform="translate(-4939 13500)" fill="none"/>
    <g id="Group_5628" data-name="Group 5628" transform="translate(-4933 13501)">
      <path id="Path_10172" data-name="Path 10172" d="M128.057,21H106.222a2.684,2.684,0,0,0-2.692,2.692V66.255a2.7,2.7,0,0,0,2.692,2.692h21.834a2.7,2.7,0,0,0,2.692-2.692V23.692A2.684,2.684,0,0,0,128.057,21ZM117.14,35.937V56.315h10.29v3.836a.759.759,0,0,1-.756.756H107.606a.759.759,0,0,1-.756-.756V31.346h4.3v-.184h-4.3V28.377a.756.756,0,0,1,.756-.738h19.068a.756.756,0,0,1,.756.738v7.561Z" transform="translate(-103.53 -21)" fill="#525f7f"/>
      <rect id="Rectangle_3671" data-name="Rectangle 3671" width="4.297" height="0.184" transform="translate(3.319 10.161)" fill="#b4e1f9"/>
      <rect id="Rectangle_3672" data-name="Rectangle 3672" width="10.29" height="20.378" transform="translate(13.61 14.937)" fill="#b4e1f9"/>
      <rect id="Rectangle_3673" data-name="Rectangle 3673" width="1.992" height="0.184" transform="translate(3.319 10.161)" fill="#b4e1f9"/>
      <rect id="Rectangle_3674" data-name="Rectangle 3674" width="4.297" height="0.184" transform="translate(3.319 10.161)" fill="#b4e1f9"/>
      <path id="Path_10173" data-name="Path 10173" d="M115.62,32.9V53.276h10.29v3.836a.759.759,0,0,1-.756.756H106.086a.759.759,0,0,1-.756-.756V25.338a.756.756,0,0,1,.756-.738h19.068a.756.756,0,0,1,.756.738V32.9Z" transform="translate(-102.011 -17.961)" fill="#e1f3fd"/>
      <rect id="Rectangle_3675" data-name="Rectangle 3675" width="1.992" height="0.184" transform="translate(3.319 10.161)" fill="#e1f3fd"/>
      <path id="Path_10174" data-name="Path 10174" d="M113.431,45.587a1.729,1.729,0,1,1-1.728-1.728A1.728,1.728,0,0,1,113.431,45.587Z" transform="translate(-98.091 -1.704)" fill="#3e4151"/>
      <path id="Path_10175" data-name="Path 10175" d="M114.143,23.767h-3.981a.724.724,0,0,1,0-1.448h3.981a.724.724,0,1,1,0,1.448Z" transform="translate(-98.542 -19.887)" fill="#3e4151"/>
      <path id="Path_10176" data-name="Path 10176" d="M134.478,31.719v15.14a2.613,2.613,0,0,1-2.6,2.619H110.91V29.1h20.968A2.613,2.613,0,0,1,134.478,31.719Z" transform="translate(-97.3 -14.163)" fill="#f2f5f9"/>
      <rect id="Rectangle_3676" data-name="Rectangle 3676" width="2.656" height="20.378" transform="translate(13.61 14.937)" fill="#f2f5f9"/>
      <path id="Path_10177" data-name="Path 10177" d="M119.992,36.133a2.22,2.22,0,0,1,1.466.459.434.434,0,0,0,.529,0,2.221,2.221,0,1,1,.02,3.535.468.468,0,0,0-.57,0,2.221,2.221,0,1,1-1.446-3.994Z" transform="translate(-91.414 -8.23)" fill="#917ac5"/>
      <path id="Path_10178" data-name="Path 10178" d="M121.069,36.353a2.219,2.219,0,1,0,0,4A2.221,2.221,0,0,1,121.069,36.353Z" transform="translate(-91.414 -8.229)" fill="#594da1"/>
      <rect id="Rectangle_3677" data-name="Rectangle 3677" width="23.568" height="3.744" transform="translate(13.61 18.976)" fill="#3ecf8e"/>
      <rect id="Rectangle_3678" data-name="Rectangle 3678" width="2.656" height="3.744" transform="translate(13.61 18.976)" fill="#39b275"/>
      <rect id="Rectangle_3679" data-name="Rectangle 3679" width="2.181" height="20.378" transform="translate(12.061 14.937)" fill="#e1f3fd"/>
    </g>
  </g>
</svg>
