<svg xmlns="http://www.w3.org/2000/svg" width="50" height="50" viewBox="0 0 50 50">
  <g id="O3" transform="translate(4939 -13589)">
    <rect id="Rectangle_3662" data-name="Rectangle 3662" width="50" height="50" transform="translate(-4939 13589)" fill="none"/>
    <g id="Group_5632" data-name="Group 5632" transform="translate(-5115.063 13532.429)">
      <path id="Path_9372" data-name="Path 9372" d="M205.837,63.014l-23.49,19.624a5.306,5.306,0,0,1-.359,7.5c-.084.078-.172.151-.262.222l4.036,4.309a5.308,5.308,0,0,1,7.5.359c.078.084.151.172.222.262l22.864-19.275a5.308,5.308,0,0,1,.361-7.5c.084-.076.17-.151.26-.222l-3.41-4.657a5.3,5.3,0,0,1-7.5-.359C205.982,63.191,205.908,63.1,205.837,63.014Z" transform="translate(2.606 2.433)" fill="#a4b5cc"/>
      <path id="Path_9373" data-name="Path 9373" d="M204.483,70.684l-14.177,12.8-4.384-4.934,14.525-12.178Z" transform="translate(5.357 4.636)" fill="#525f7f"/>
      <path id="Path_9374" data-name="Path 9374" d="M211.061,67.506l-26.274,14.62a5.726,5.726,0,0,1-2.22,7.789l2.785,5a5.726,5.726,0,0,1,7.789,2.22l26.274-14.62a5.728,5.728,0,0,1,2.22-7.789l-2.785-5A5.727,5.727,0,0,1,211.061,67.506Z" transform="translate(3.158 5.377)" fill="#d3dce8"/>
      <rect id="Rectangle_3108" data-name="Rectangle 3108" width="1.432" height="10.738" transform="translate(191.562 89.586) rotate(-29.092)" fill="#f98c96"/>
      <rect id="Rectangle_3109" data-name="Rectangle 3109" width="1.432" height="10.738" transform="translate(212.831 77.752) rotate(-29.092)" fill="#525f7f"/>
      <rect id="Rectangle_3110" data-name="Rectangle 3110" width="18.613" height="3.579" transform="translate(195.038 88.472) rotate(-29.092)" fill="#525f7f"/>
      <rect id="Rectangle_3111" data-name="Rectangle 3111" width="10.738" height="1.432" transform="translate(197.197 93.824) rotate(-29.092)" fill="#525f7f"/>
      <rect id="Rectangle_3112" data-name="Rectangle 3112" width="2.148" height="1.432" transform="translate(207.832 87.907) rotate(-29.092)" fill="#525f7f"/>
      <rect id="Rectangle_3113" data-name="Rectangle 3113" width="4.295" height="1.432" transform="translate(210.96 86.167) rotate(-29.092)" fill="#525f7f"/>
      <rect id="Rectangle_3114" data-name="Rectangle 3114" width="5.727" height="1.432" transform="translate(198.589 96.327) rotate(-29.092)" fill="#f98c96"/>
      <rect id="Rectangle_3115" data-name="Rectangle 3115" width="12.886" height="1.432" transform="translate(204.845 92.846) rotate(-29.092)" fill="#525f7f"/>
      <rect id="Rectangle_3116" data-name="Rectangle 3116" width="2.148" height="1.432" transform="translate(186.769 97.169) rotate(-29.092)" fill="#f98c96"/>
      <path id="Path_9375" data-name="Path 9375" d="M188.135,63.746a.741.741,0,0,1-.593-1.184l2.222-2.963a.74.74,0,0,1,1.185.887l-2.222,2.963A.74.74,0,0,1,188.135,63.746Z" transform="translate(6.322 0)" fill="#917ac5"/>
      <path id="Path_9376" data-name="Path 9376" d="M204.412,61.539h-25.18a1.487,1.487,0,0,0-1.482,1.482v37.032a1.485,1.485,0,0,0,1.482,1.48h25.18a1.485,1.485,0,0,0,1.482-1.48V63.021A1.487,1.487,0,0,0,204.412,61.539Zm-12.59,6.667a2.222,2.222,0,1,1,2.222-2.222A2.222,2.222,0,0,1,191.822,68.206Z" transform="translate(0 1.466)" fill="#f2f5f9"/>
      <path id="Path_9377" data-name="Path 9377" d="M177.75,77.645V89.5a1.485,1.485,0,0,0,1.482,1.48h25.18a1.485,1.485,0,0,0,1.482-1.48V77.645Z" transform="translate(0 12.023)" fill="#594da1"/>
      <path id="Path_9380" data-name="Path 9380" d="M188.26,68.19a.738.738,0,0,1-.662-.409l-3.7-7.407a.74.74,0,1,1,1.324-.662l3.7,7.405a.74.74,0,0,1-.662,1.073Z" transform="translate(3.976 0)" fill="#917ac5"/>
      <circle id="Ellipse_941" data-name="Ellipse 941" cx="6.622" cy="6.622" r="6.622" transform="translate(185.2 72.045)" fill="#3ecf8e"/>
      <g id="Group_5261" data-name="Group 5261" transform="translate(184.579 91.911)">
        <rect id="Rectangle_3117" data-name="Rectangle 3117" width="14.899" height="1.655" transform="translate(0 3.311)" fill="#fff"/>
        <rect id="Rectangle_3118" data-name="Rectangle 3118" width="6.622" height="1.655" transform="translate(4.139)" fill="#fff"/>
        <rect id="Rectangle_3119" data-name="Rectangle 3119" width="3.725" height="1.655" transform="translate(0 6.622)" fill="#fff"/>
        <rect id="Rectangle_3120" data-name="Rectangle 3120" width="3.725" height="1.655" transform="translate(5.587 6.622)" fill="#fff"/>
        <rect id="Rectangle_3121" data-name="Rectangle 3121" width="3.725" height="1.655" transform="translate(11.175 6.622)" fill="#fff"/>
      </g>
    </g>
  </g>
</svg>
