<svg xmlns="http://www.w3.org/2000/svg" width="50" height="50" viewBox="0 0 50 50">
  <g id="O4" transform="translate(4869 -13589)">
    <rect id="Rectangle_3662" data-name="Rectangle 3662" width="50" height="50" transform="translate(-4869 13589)" fill="none"/>
    <g id="Group_5633" data-name="Group 5633" transform="translate(-5098.353 13532)">
      <path id="Path_9381" data-name="Path 9381" d="M238.891,86.1l4.156-21.5,4.232-5.1,5.346,1.686.1,6.466-8.486,20.14Z" transform="translate(7.481 0.494)" fill="#3ecf8e"/>
      <path id="Path_9382" data-name="Path 9382" d="M242.127,64.449,238.891,81.19l5.346,1.686L252,64.449Z" transform="translate(7.481 5.408)" fill="#39b275"/>
      <path id="Path_9383" data-name="Path 9383" d="M235.613,84.537l7.125-22.6A4.2,4.2,0,0,1,248,59.2l2.528.8L242.144,86.6Z" transform="translate(4.228 0)" fill="#d3dce8"/>
      <path id="Path_9384" data-name="Path 9384" d="M241.574,86.949l8.388-26.605,10.805,3.407a4.2,4.2,0,0,1,2.742,5.266l-7.125,22.6Z" transform="translate(10.144 1.334)" fill="#d3dce8"/>
      <path id="Path_9385" data-name="Path 9385" d="M247.384,64.449l-5.81,18.426,14.81,4.668,7.125-22.6a4.368,4.368,0,0,0,.124-.494Z" transform="translate(10.144 5.408)" fill="#525f7f"/>
      <path id="Path_9386" data-name="Path 9386" d="M240.241,64.449l-4.628,14.68,6.531,2.06,5.28-16.741Z" transform="translate(4.228 5.408)" fill="#525f7f"/>
      <path id="Path_9387" data-name="Path 9387" d="M273.2,65.855H234.437a3.084,3.084,0,0,0-3.084,3.084V94.7a3.084,3.084,0,0,0,3.084,3.084H273.2a3.084,3.084,0,0,0,3.084-3.084V68.939A3.084,3.084,0,0,0,273.2,65.855Z" transform="translate(0 6.803)" fill="#f2f5f9"/>
      <path id="Path_9388" data-name="Path 9388" d="M235.089,94.7V68.939a3.084,3.084,0,0,1,3.084-3.084h-3.736a3.084,3.084,0,0,0-3.084,3.084V94.7a3.084,3.084,0,0,0,3.084,3.084h3.736A3.084,3.084,0,0,1,235.089,94.7Z" transform="translate(0 6.803)" fill="#d3dce8"/>
      <path id="Path_9389" data-name="Path 9389" d="M261.93,86.422V69.685a5.307,5.307,0,0,0-.594-.036h-7.113a8.4,8.4,0,1,0,0,16.808h7.113A4.872,4.872,0,0,0,261.93,86.422Z" transform="translate(14.355 10.569)" fill="#ffb64c"/>
      <path id="Path_9390" data-name="Path 9390" d="M259.941,71.055h-7.113a5.6,5.6,0,1,0,0,11.206h7.113a2.074,2.074,0,0,0,2.074-2.074V73.129A2.074,2.074,0,0,0,259.941,71.055Z" transform="translate(15.75 11.964)" fill="#ffd396"/>
      <path id="Path_9391" data-name="Path 9391" d="M252.848,74.786A1.845,1.845,0,1,1,251,72.941,1.846,1.846,0,0,1,252.848,74.786Z" transform="translate(17.671 13.836)" fill="#465a61"/>
    </g>
  </g>
</svg>
