<svg xmlns="http://www.w3.org/2000/svg" width="50" height="50" viewBox="0 0 50 50">
  <g id="R3" transform="translate(4939 -13678)">
    <rect id="Rectangle_3662" data-name="Rectangle 3662" width="50" height="50" transform="translate(-4939 13678)" fill="none"/>
    <g id="Group_5636" data-name="Group 5636" transform="translate(-5390.096 13561.791)">
      <rect id="Rectangle_3140" data-name="Rectangle 3140" width="10.721" height="3.399" transform="translate(472.687 157.658)" fill="#6b7c93"/>
      <path id="Path_9431" data-name="Path 9431" d="M497.348,126.89a1.125,1.125,0,0,0-1.174-1.069H456.417a1.126,1.126,0,0,0-1.175,1.069V149.14h42.106Z" transform="translate(1.476 3.616)" fill="#525f7f"/>
      <rect id="Rectangle_3141" data-name="Rectangle 3141" width="37.513" height="21.228" transform="translate(459.015 131.528)" fill="#e1f3fd"/>
      <path id="Path_9432" data-name="Path 9432" d="M455.242,141.119v4.193a1.126,1.126,0,0,0,1.175,1.069h39.757a1.125,1.125,0,0,0,1.174-1.069v-4.193Z" transform="translate(1.476 11.637)" fill="#6b7c93"/>
      <circle id="Ellipse_943" data-name="Ellipse 943" cx="1.454" cy="1.454" r="1.454" transform="translate(476.591 153.933)" fill="#d5d6db"/>
      <path id="Path_9433" data-name="Path 9433" d="M479.023,146.4H465.7a2.433,2.433,0,0,0-2.434,2.433h18.188A2.433,2.433,0,0,0,479.023,146.4Z" transform="translate(5.684 14.408)" fill="#6b7c93"/>
      <g id="Group_5267" data-name="Group 5267" transform="translate(452.427 138.941)">
        <path id="Path_9434" data-name="Path 9434" d="M452.427,139.859v-6.652a1.149,1.149,0,0,1,1.143-1.151h9.211v8.954H453.57A1.148,1.148,0,0,1,452.427,139.859Z" transform="translate(-452.427 -132.056)" fill="#f2f5f9"/>
        <path id="Path_9435" data-name="Path 9435" d="M464.908,133.207v6.652a1.148,1.148,0,0,1-1.142,1.151h-9.213v-8.954h9.213A1.149,1.149,0,0,1,464.908,133.207Z" transform="translate(-451.312 -132.056)" fill="#f2f5f9"/>
        <g id="Group_5266" data-name="Group 5266" transform="translate(1.099 1.415)">
          <path id="Path_9436" data-name="Path 9436" d="M458,134.368c.03.031.075.031.091.072.009.026-.006.061,0,.087.1.378.53.154.3-.268a.339.339,0,0,1-.066-.163c0-.067.062-.111.076-.174s-.037-.148-.017-.218c.024-.093.073-.052.136-.075a.19.19,0,0,0,.087-.11c.021-.078-.029-.108-.093-.12a.5.5,0,0,1-.16-.076c-.037-.024-.035-.05-.061-.076a.23.23,0,0,0-.1-.052.553.553,0,0,0-.183-.05c-.058,0-.142.09-.189.064-.062-.037-.029-.157-.134-.168a1.165,1.165,0,0,0-.279.041c-.052.044-.006.146-.05.177s-.163,0-.2,0a.254.254,0,0,0,.049.2c.031.056.105.087.124.128a.65.65,0,0,1,.017.163.5.5,0,0,0,.095.2c.026.021.053.006.076.041s.011.064.015.1C457.56,134.287,457.881,134.235,458,134.368Z" transform="translate(-451.049 -132.955)" fill="#d6facf"/>
          <path id="Path_9437" data-name="Path 9437" d="M458.79,139.676c.13,0,.146.015.216-.075s.03-.1.053-.2.073-.133.056-.244a.668.668,0,0,1-.024-.184,2.61,2.61,0,0,0,.049-.451c-.009-.123-.136-.309-.066-.438s.337-.186.433-.317a.684.684,0,0,0,.053-.383c-.015-.087-.11-.157-.114-.239-.008-.1.064-.093.137-.145s.11-.12.188-.16a1.732,1.732,0,0,1,.27-.059.93.93,0,0,0,.282-.172c.093-.081.082-.149.113-.264a1.475,1.475,0,0,1,.221-.441.91.91,0,0,1-.021.258c-.015.067-.082.194-.064.248.123-.059.113-.209.152-.32.052-.146.256-.381.25-.544,0-.1-.1-.152-.14-.241a.439.439,0,0,1-.035-.175c.011-.09.038-.064.079-.134a.5.5,0,0,0,.049-.293c-.008-.229.032-.4.279-.489a.372.372,0,0,1,.364.1c.136.117.1.184.378.188-.023-.122-.286-.1-.256-.256.166.008.218-.262.117-.355-.064-.061-.177-.04-.194-.137-.008-.044.053-.1.046-.174-.058-.012-.206.012-.242-.043-.056-.088.078-.152-.064-.206a1.319,1.319,0,0,0-.248-.035,1.043,1.043,0,0,0-.218,0,.346.346,0,0,0-.253.151,1.484,1.484,0,0,1-.14.192c-.111.087-.306-.017-.427.053-.087.052-.073.148-.14.213s-.136.035-.215.056c.2,0,.192-.082.186-.221-.008-.157.049-.134.2-.143-.034-.075-.107-.04-.163-.076-.031-.021-.064-.13-.072-.134-.032-.012-.157.075-.189.107s-.044.133-.078.152c-.049.027-.124-.043-.156-.023-.076.046-.011.093,0,.134a.309.309,0,0,0,.059.146c.027.049.082.032.04.127-.11,0-.113.011-.163-.062-.035-.052.034-.131-.091-.111a.409.409,0,0,1-.014.125c-.072-.079.006-.154-.02-.239.058.095.151.03.1-.058-.064-.11-.434.043-.308-.122.052-.067.175.034.181-.087.127.046.235-.014.38,0a.264.264,0,0,0-.014-.139.213.213,0,0,0,.146-.058.448.448,0,0,1-.081-.012l0-.023a.229.229,0,0,0-.174-.017c-.073.037-.062.117-.114.168-.011-.085,0-.259-.131-.233s-.014.163-.024.255c-.061.035-.108.014-.174.02s-.1.034-.163.041c.014.116-.04.142-.151.14.066-.012.125-.056.1-.128-.056.011-.1-.021-.087-.076-.027,0-.055-.023-.079-.026.041-.052.1-.03.125-.088s-.031-.123-.069-.162c-.09-.093-.183-.087-.3-.105a1.991,1.991,0,0,0-.331-.047c-.128,0-.163.076-.284.105a.88.88,0,0,0,.126.1c.03.017.069.018.1.035s.035.044.055.058a.255.255,0,0,0,.149.034.593.593,0,0,1,.207.035c-.018.038-.136.012-.078.095a.63.63,0,0,0,.113.073c.184.122.055.024.162.184.015.023.049.032-.014.116-.026.037-.081.059-.11.095a.667.667,0,0,0-.05.175.24.24,0,0,1-.046.079c-.015.026-.041.14-.008.171s.142.006.151-.035c.078.052-.038.076-.053.1-.035.056.06.117.1.125.1.018.152.014.174-.212a.279.279,0,0,0,.1,0,.073.073,0,0,0,0-.037,1.013,1.013,0,0,0-.165-.035.371.371,0,0,1-.047-.1c-.02-.123.133.058.157-.032.012-.047-.122-.165.034-.125.091.024.105.1.1.184.055,0,.165,0,.194.047-.024.017-.1.032-.117.055-.044.067.1.146.158.117s.017-.1.116-.091a.37.37,0,0,1,.235.439c-.058.148-.2.084-.252.192-.036.079-.026.242-.163.207-.1-.026-.014-.212-.044-.284-.011-.021-.032-.02-.041-.041a.334.334,0,0,1,0-.087c0-.265-.238-.285-.29-.155-.014.035.014.1-.006.134s-.067.02-.114.023a.123.123,0,0,0-.072-.076c-.079-.014-.05.084-.055.131-.009.079-.015.1-.076.14-.032.02-.091.046-.1.084s.03.064.046.105c.049.13-.151.1-.095.245.024.066.192.076.232.021s0-.136.059-.174.194,0,.25.023c-.035.053-.143.079-.16.139a.148.148,0,0,0,.09.152c.1.032.188-.116.252-.018.075.116-.037.009.076.162a1.025,1.025,0,0,0,.108.145.419.419,0,0,1,.111.12,1.071,1.071,0,0,0,.055.152c.015.024.053.046.073.075.069.1-.024.066.012.2.124.024.1-.244.253-.271a1.029,1.029,0,0,1,.247.006c.053,0,.12,0,.143.063s-.02.136,0,.2.055.079,0,.127-.3.117-.287-.024c-.133-.056-.034.137-.034.163,0,.076-.16.091-.186.16s.009.136-.094.171-.152.009-.229-.072a.568.568,0,0,0-.4.026.292.292,0,0,1-.073.032c-.02,0-.041-.006-.059,0s-.008.026-.024.038c-.035.027-.165.052-.123.125-.075.073-.143-.011-.175.111a.238.238,0,0,0-.014.11c.008.035.027.062.021.1a1.413,1.413,0,0,1-.29.026.344.344,0,0,0-.131.015c-.043.024-.04.063-.046.111a.824.824,0,0,0,.024.377c.029.09.1.162.125.251.034,0,.078.052.11.07s.055.014.091.027.047.069.053.116a.3.3,0,0,0,.058.168c.049.067.13.095.177.163a1.355,1.355,0,0,1,.255.386.207.207,0,0,1-.008.127c-.015.067.035.1.043.171a.445.445,0,0,1-.006.149C458.846,139.648,458.854,139.658,458.79,139.676Z" transform="translate(-450.711 -132.984)" fill="#d6facf"/>
          <path id="Path_9438" data-name="Path 9438" d="M457.149,136.9a.21.21,0,0,0-.053,0c-.056.181.143.253.271.358a.733.733,0,0,1,.133.1c.053.075-.032.172-.043.252a.327.327,0,0,0,.058.261c.044.064.122.088.155.157.021.038.006.073.018.11a1.384,1.384,0,0,0,.1.152c.029.053.043.113.067.166.095.2.32.174.474.061.084-.061.12-.2.168-.3a1.275,1.275,0,0,0,.015-.584c-.011-.12.041-.162.076-.264s-.031-.191.119-.224c.023-.006.079,0,.1-.017.04-.031.018-.087.072-.116.078-.041.219.035.3.04.471.034.613-1.082-.233-1.258a1.567,1.567,0,0,0-.43.029c-.009.183.058.2-.133.2-.094,0-.18-.017-.273-.017a.879.879,0,0,1-.335-.015c-.235-.12.28-.207.352-.216s.143.023.181-.05c.026-.049-.011-.078.04-.119a.676.676,0,0,1,.527-.046c.064.052.079.122.162.168.105.056.261.117.323-.018.087-.186-.1-.245-.241-.285-.043-.014-.123-.027-.116-.095,0-.029.029-.032.037-.049a.619.619,0,0,1,.037-.1c.041-.046.136.017.183-.018.154-.111-.18-.677-.242-.351-.018.093,0,.14-.171.159-.238.024-.05-.159-.041-.267s-.04-.136-.1-.206c-.168-.213-.087-.288-.375-.421-.433-.2-.363.1-.7.1a.406.406,0,0,1-.267-.084.655.655,0,0,0-.152-.1c-.059-.015-.116.027-.151-.027s.034-.142.026-.2a.405.405,0,0,0-.125-.024c-.04.011-.03.046-.062.061-.087.04-.323-.087-.372-.329-.043-.215-.244-.306-.316-.259s-.038.09-.136.108c-.078.015-.119-.017-.127.069s.061.133.09.2c-.059.006-.084-.038-.125-.066-.12-.081-.334.014-.36-.146-.14-.034-.16.107-.265.145-.076.027-.245-.038-.238-.123,0-.059.011-.1.02-.159-.143-.062-.242.012-.369.043-.047.011-.1.009-.143.015-.154.021-.088-.128-.271-.09-.093.02-.03.058-.1.105-.044.03-.139-.009-.174-.027-.07-.035-.073-.053-.067-.145-.284-.078-.959.032-.764.276.056.07.087.032.163.055.174.055.085.2-.064.2-.03.079.018.136.073.2s.125.067.2.11a.178.178,0,0,1,.095.192c-.021.063-.1.064-.116.149-.026.11-.075.444.044.474.293.075.075-.643.294-.758.151-.079.166.14.13.224a.5.5,0,0,0,.172.017.9.9,0,0,1,.344.2c.018.082-.108.075-.16.1-.175.081-.156.14-.169.473a.147.147,0,0,1-.058,0,.26.26,0,0,0,.082.285c.076.046.137.072.156.169s-.061.11-.1.18c-.047.095.017.213.125.119.049-.043.026-.117.07-.157.026-.023.082-.046.114-.067.143-.1.223.123.084.262-.037.035-.095.072-.11.125a.411.411,0,0,0,.287.465c.181.037.244.136.143.381-.02.049-.078.082-.009.12.1.055.285-.073.314-.152,0-.012-.012-.027-.006-.041s.029-.015.038-.029c.126-.2.091-.046.245-.267.035-.052.055-.055.116-.017.221.136.4.255.285.488-.011.021-.056.053-.061.075-.011.069.111.058.157.041a.213.213,0,0,0,.122-.154c.021-.062.064-.11.081-.169s0-.108.043-.165a.475.475,0,0,1,.187-.165,1.233,1.233,0,0,1,.163-.079c.137-.029.282.053.384-.059a.4.4,0,0,1,.146-.113.544.544,0,0,1-.1.209c-.059.061-.142.04-.22.044-.052,0-.061-.014-.082.038-.061.143.264.241.412.309s.163.029.2-.12a.675.675,0,0,1,.364-.413c.07.279-.258.436-.444.645C457.274,136.893,457.225,136.866,457.149,136.9Z" transform="translate(-453.148 -132.913)" fill="#d6facf"/>
          <path id="Path_9439" data-name="Path 9439" d="M454.374,137.058a1.024,1.024,0,0,0,.233.078c.087.017.155.037.2-.043s.093-.169.031-.244c-.024-.026-.04-.026-.055-.062a.523.523,0,0,1-.026-.137c-.011-.11-.079-.154-.174-.192a.893.893,0,0,1-.244-.134c-.066-.056-.1-.12-.186-.148a.39.39,0,0,0-.146-.027.174.174,0,0,0-.136.043c-.041.037-.044.116-.09.14-.1.053-.157-.119-.165-.181-.113-.017-.148.1-.181.18a1.135,1.135,0,0,0-.128.29c-.009.07,0,.137-.015.207a.294.294,0,0,0,.026.2.82.82,0,0,0,.056.2c.017.024.052.037.073.061s.032.066.067.093a.26.26,0,0,0,.293,0c.111-.056.16-.076.2-.207A.235.235,0,0,1,454.374,137.058Z" transform="translate(-453.075 -131.325)" fill="#d6facf"/>
        </g>
        <rect id="Rectangle_3142" data-name="Rectangle 3142" width="13.523" height="1.645" transform="translate(0.073 1.775)" fill="#3ecf8e"/>
        <path id="Path_9440" data-name="Path 9440" d="M459.659,135.891a.966.966,0,0,0-.474-.1.975.975,0,1,0,.473,1.852A.975.975,0,0,1,459.659,135.891Z" transform="translate(-449.369 -130.097)" fill="#594da1"/>
        <path id="Path_9441" data-name="Path 9441" d="M459.718,135.795a.977.977,0,0,1,.645.2.192.192,0,0,0,.232,0,.976.976,0,1,1,.009,1.553.206.206,0,0,0-.25,0,.976.976,0,1,1-.636-1.755Z" transform="translate(-449.09 -130.097)" fill="#917ac5"/>
      </g>
      <path id="Path_9442" data-name="Path 9442" d="M477.307,136.33H465.7a.6.6,0,1,0,0,1.2h11.6a.6.6,0,1,0,0-1.2Z" transform="translate(6.647 9.126)" fill="#c3ddf4"/>
      <path id="Path_9443" data-name="Path 9443" d="M473.351,118.924V136.4a1.518,1.518,0,0,1-1.517,1.517h-8.6a1.518,1.518,0,0,1-1.518-1.517V118.924l.759.759.721-.727.723.727.721-.727.727.727.721-.727.723.727.721-.727.726.727.723-.727.721.727.723-.727.726.727.723-.727.721.727Z" transform="translate(4.871 0)" fill="#a4b5cc"/>
      <path id="Path_9444" data-name="Path 9444" d="M465.653,122.517a1.537,1.537,0,0,0-1.537,1.537v10.234a1.536,1.536,0,0,1-1.537,1.537H475.4a1.537,1.537,0,0,0,1.536-1.537V122.517Z" transform="translate(5.323 1.884)" fill="#d3dce8"/>
      <path id="Path_9445" data-name="Path 9445" d="M475.876,122.517H464.6c.849,0,1.536.492,1.536,1.1v20.556h11.28V123.616C477.413,123.009,476.725,122.517,475.876,122.517Z" transform="translate(6.381 1.884)" fill="#f2f5f9"/>
      <rect id="Rectangle_3143" data-name="Rectangle 3143" width="3.903" height="1.341" transform="translate(473.772 142.921)" fill="#6b7c93"/>
      <rect id="Rectangle_3144" data-name="Rectangle 3144" width="3.903" height="1.341" transform="translate(473.772 140.106)" fill="#6b7c93"/>
      <rect id="Rectangle_3145" data-name="Rectangle 3145" width="3.903" height="3.729" transform="translate(478.786 140.531)" fill="#525f7f"/>
      <rect id="Rectangle_3146" data-name="Rectangle 3146" width="8.917" height="0.67" transform="translate(473.772 125.707)" fill="#6b7c93"/>
      <rect id="Rectangle_3147" data-name="Rectangle 3147" width="8.917" height="0.67" transform="translate(473.772 127.331)" fill="#917ac5"/>
      <rect id="Rectangle_3148" data-name="Rectangle 3148" width="8.917" height="0.67" transform="translate(473.772 128.955)" fill="#917ac5"/>
      <rect id="Rectangle_3149" data-name="Rectangle 3149" width="8.917" height="0.67" transform="translate(473.772 130.579)" fill="#594da1"/>
      <rect id="Rectangle_3150" data-name="Rectangle 3150" width="6.371" height="0.67" transform="translate(473.772 132.208)" fill="#3ecf8e"/>
      <g id="Group_5268" data-name="Group 5268" transform="translate(488.234 123.548)">
        <circle id="Ellipse_944" data-name="Ellipse 944" cx="3.225" cy="3.225" r="3.225" transform="translate(0 13.088)" fill="#f5ea07"/>
        <path id="Path_9446" data-name="Path 9446" d="M478.984,136.373a2.763,2.763,0,1,1,2.764-2.764A2.767,2.767,0,0,1,478.984,136.373Zm0-5.039a2.277,2.277,0,1,0,2.276,2.276A2.279,2.279,0,0,0,478.984,131.333Z" transform="translate(-475.758 -117.296)" fill="#e8bb20"/>
        <circle id="Ellipse_945" data-name="Ellipse 945" cx="3.225" cy="3.225" r="3.225" transform="translate(5.22 7.629)" fill="#f5ea07"/>
        <path id="Path_9447" data-name="Path 9447" d="M480.454,131.982a2.764,2.764,0,1,1,3.908,0A2.769,2.769,0,0,1,480.454,131.982Zm3.564-3.564a2.276,2.276,0,1,0,0,3.219A2.28,2.28,0,0,0,484.017,128.419Z" transform="translate(-473.962 -119.174)" fill="#e8bb20"/>
        <circle id="Ellipse_946" data-name="Ellipse 946" cx="3.225" cy="3.225" r="3.225" transform="translate(3.211)" fill="#f5ea07"/>
        <path id="Path_9448" data-name="Path 9448" d="M483.044,126.978a2.764,2.764,0,1,1,0-3.908A2.769,2.769,0,0,1,483.044,126.978Zm-3.564-3.564a2.276,2.276,0,1,0,3.218,0A2.28,2.28,0,0,0,479.481,123.415Z" transform="translate(-474.653 -121.798)" fill="#e8bb20"/>
      </g>
    </g>
  </g>
</svg>
